<?xml version="1.0" encoding="UTF-8"?><kml xmlns="http://www.opengis.net/kml/2.2"><Document><Placemark><name>Impact Hub</name><ExtendedData><Data name="name"><value>Impact Hub</value></Data></ExtendedData><Point><coordinates>16.620619,49.190192</coordinates></Point></Placemark><Placemark><name>Masný růžek</name><description>Steaks, burgers
Cheap Pilsner Urquell

Czech-only website:
https://www.pivnicemasnyruzek.cz/menu-dne</description><ExtendedData><Data name="name"><value>Masný růžek</value></Data><Data name="description"><value>Steaks, burgers
Cheap Pilsner Urquell

Czech-only website:
https://www.pivnicemasnyruzek.cz/menu-dne</value></Data></ExtendedData><Point><coordinates>16.625842,49.191053</coordinates></Point></Placemark><Placemark><name>Way to Vaňkovka Food Court</name><ExtendedData><Data name="name"><value>Way to Vaňkovka Food Court</value></Data></ExtendedData><LineString><coordinates>16.615091,49.18762 16.616245,49.187785 16.616625,49.187938 16.616655,49.188073 16.616529,49.188201 16.616886,49.188634 16.617304,49.190018 16.617953,49.189933 16.618229,49.189978 16.618313,49.190206</coordinates></LineString></Placemark><Placemark><ExtendedData></ExtendedData><LineString><coordinates>16.616105,49.190141</coordinates></LineString></Placemark><Placemark><name>Potrefená husa</name><description>https://www.potrefenahusabrno.cz/</description><ExtendedData><Data name="name"><value>Potrefená husa</value></Data><Data name="description"><value>https://www.potrefenahusabrno.cz/</value></Data></ExtendedData><Point><coordinates>16.615482,49.187531</coordinates></Point></Placemark><Placemark><name>Grand Kitchen Vlněna</name><description>Canteen.

Czech-only website:
https://www.grandkitchenvlnena.cz/menu/</description><ExtendedData><Data name="name"><value>Grand Kitchen Vlněna</value></Data><Data name="description"><value>Canteen.

Czech-only website:
https://www.grandkitchenvlnena.cz/menu/</value></Data></ExtendedData><Point><coordinates>16.61656,49.189237</coordinates></Point></Placemark><Placemark><name>Ramen Brno</name><description>https://ramen-brno.cz/en/home_en/</description><ExtendedData><Data name="name"><value>Ramen Brno</value></Data><Data name="description"><value>https://ramen-brno.cz/en/home_en/</value></Data></ExtendedData><Point><coordinates>16.62424,49.191093</coordinates></Point></Placemark><Placemark><name>Little Saigon</name><description>https://littlesaigonbrno.choiceqr.com/online-menu</description><ExtendedData><Data name="name"><value>Little Saigon</value></Data><Data name="description"><value>https://littlesaigonbrno.choiceqr.com/online-menu</value></Data></ExtendedData><Point><coordinates>16.620761,49.192192</coordinates></Point></Placemark><Placemark><name>Veg8café</name><ExtendedData><Data name="name"><value>Veg8café</value></Data></ExtendedData><Point><coordinates>16.621679,49.191338</coordinates></Point></Placemark><Placemark><name>Forky's Street Food</name><description>https://www.forkys.eu/en/</description><ExtendedData><Data name="name"><value>Forky's Street Food</value></Data><Data name="description"><value>https://www.forkys.eu/en/</value></Data></ExtendedData><Point><coordinates>16.616548,49.188781</coordinates></Point></Placemark><Placemark><name>Vaňkovka mall</name><description>https://www.galerie-vankovka.cz/en/gastronomy/

Mall with various fast and slow food options.</description><ExtendedData><Data name="name"><value>Vaňkovka mall</value></Data><Data name="description"><value>https://www.galerie-vankovka.cz/en/gastronomy/

Mall with various fast and slow food options.</value></Data></ExtendedData><Point><coordinates>16.614713,49.187566</coordinates></Point></Placemark><Placemark><name>Sargam Nepal</name><ExtendedData><Data name="name"><value>Sargam Nepal</value></Data></ExtendedData><Point><coordinates>16.620457,49.188601</coordinates></Point></Placemark><Placemark><name>Annapurna</name><ExtendedData><Data name="name"><value>Annapurna</value></Data></ExtendedData><Point><coordinates>16.612256,49.192268</coordinates></Point></Placemark><Placemark><name>Los Capolitos</name><description>https://www.brno.capolitos.cz/</description><ExtendedData><Data name="description"><value>https://www.brno.capolitos.cz/</value></Data><Data name="name"><value>Los Capolitos</value></Data></ExtendedData><Point><coordinates>16.616368,49.189533</coordinates></Point></Placemark><Placemark><name>Rebelbean</name><ExtendedData><Data name="name"><value>Rebelbean</value></Data></ExtendedData><Point><coordinates>16.616485,49.189796</coordinates></Point></Placemark><Placemark><name>Stehlik Coffee Bar</name><ExtendedData><Data name="name"><value>Stehlik Coffee Bar</value></Data></ExtendedData><Point><coordinates>16.622763,49.19097</coordinates></Point></Placemark><Placemark><ExtendedData></ExtendedData><Point><coordinates>16.632667,49.193791</coordinates></Point></Placemark></Document></kml>